[
  {
    "nom": "Guadeloupe",
    "code": "01"
  },
  {
    "nom": "Martinique",
    "code": "02"
  },
  {
    "nom": "Guyane",
    "code": "03"
  },
  {
    "nom": "La Réunion",
    "code": "04"
  },
  {
    "nom": "Saint Pierre et Miquelon",
    "code": "05"
  },
  {
    "nom": "Mayotte",
    "code": "06"
  },
  {
    "nom": "Terres Australes et Antarctiques",
    "code": "07"
  },
  {
    "nom": "Wallis et Futuna",
    "code": "08"
  },
  {
    "nom": "Polynésie Française",
    "code": "09"
  },
  {
    "nom": "Nouvelle-Calédonie",
    "code": "10"
  },
  {
    "nom": "Île-de-France",
    "code": "11"
  },
  {
    "nom": "Centre-Val de Loire",
    "code": "24"
  },
  {
    "nom": "Bourgogne-Franche-Comté",
    "code": "27"
  },
  {
    "nom": "Normandie",
    "code": "28"
  },
  {
    "nom": "Hauts-de-France",
    "code": "32"
  },
  {
    "nom": "Grand Est",
    "code": "44"
  },
  {
    "nom": "Pays de la Loire",
    "code": "52"
  },
  {
    "nom": "Bretagne",
    "code": "53"
  },
  {
    "nom": "Nouvelle-Aquitaine",
    "code": "75"
  },
  {
    "nom": "Occitanie",
    "code": "76"
  },
  {
    "nom": "Auvergne-Rhône-Alpes",
    "code": "84"
  },
  {
    "nom": "Provence-Alpes-Côte d'Azur",
    "code": "93"
  },
  {
    "nom": "Corse",
    "code": "94"
  },
  {
    "nom": "Etranger",
    "code": "99"
  }
]